{	
	"calibration_parameters":
	{
		"raw_calib_matrix": [[-26.68455771,187.8373546,611.2106067,-21619.07679,-1272.938033,21396.06415],
				    [-434.1959051,24966.75887,-141.9587756,-12262.33853,815.4631019,-12434.04352],
				    [30923.84586,486.0984007,31167.86957,586.4014576,31039.28682,1012.305356],
				    [-3.069728232,176.7661527,-501.6105345,-97.75201247,504.2415587,-71.08653592],
				    [570.7282311,6.989578155,-293.2718274,147.5944266,-290.463874,-159.433047],
				    [16.13916061,-322.5105806,8.62807362,-319.0687089,14.6005316,-318.6449357]],

		"true_amplifier_gains": [32,32,32,32,32,32],

                "desired_amplification_gain_A": 32,

                "desired_amplification_gain_B": 32,

		"excitation": 5
	}
}
